\relax 
\providecommand\zref@newlabel[2]{}
\providecommand\hyper@newdestlabel[2]{}
\providecommand\AtEndDvi@Check{}
\AtEndDvi@Check
\providecommand\HyperFirstAtBeginDocument{\AtBeginDocument}
\HyperFirstAtBeginDocument{\ifx\hyper@anchor\@undefined
\global\let\oldcontentsline\contentsline
\gdef\contentsline#1#2#3#4{\oldcontentsline{#1}{#2}{#3}}
\global\let\oldnewlabel\newlabel
\gdef\newlabel#1#2{\newlabelxx{#1}#2}
\gdef\newlabelxx#1#2#3#4#5#6{\oldnewlabel{#1}{{#2}{#3}}}
\AtEndDocument{\ifx\hyper@anchor\@undefined
\let\contentsline\oldcontentsline
\let\newlabel\oldnewlabel
\fi}
\fi}
\global\let\hyper@last\relax 
\gdef\HyperFirstAtBeginDocument#1{#1}
\providecommand*\HyPL@Entry[1]{}
\abx@aux@sortscheme{nty}
\abx@aux@refcontext{nty/global/}
\HyPL@Entry{0<</S/D>>}
\providecommand\@newglossary[4]{}
\@newglossary{main}{glg}{gls}{glo}
\@newglossary{acronym}{alg}{acr}{acn}
\providecommand\@glsorder[1]{}
\providecommand\@istfilename[1]{}
\@istfilename{0_documento_xxxx.ist}
\@glsorder{word}
\@writefile{toc}{\boolfalse {citerequest}\boolfalse {citetracker}\boolfalse {pagetracker}\boolfalse {backtracker}\relax }
\@writefile{lof}{\boolfalse {citerequest}\boolfalse {citetracker}\boolfalse {pagetracker}\boolfalse {backtracker}\relax }
\@writefile{lot}{\boolfalse {citerequest}\boolfalse {citetracker}\boolfalse {pagetracker}\boolfalse {backtracker}\relax }
\select@language{spanish}
\@writefile{toc}{\defcounter {refsection}{0}\relax }\@writefile{toc}{\select@language{spanish}}
\@writefile{lof}{\defcounter {refsection}{0}\relax }\@writefile{lof}{\select@language{spanish}}
\@writefile{lot}{\defcounter {refsection}{0}\relax }\@writefile{lot}{\select@language{spanish}}
\@writefile{toc}{\contentsline {section}{\numberline {1}Sección}{3}{section.1}}
\newlabel{sec:seccionprimera}{{1}{3}{Sección}{section.1}{}}
\@writefile{toc}{\contentsline {subsection}{\numberline {1.1}Subsección}{3}{subsection.1.1}}
\@writefile{toc}{\contentsline {subsubsection}{\numberline {1.1.1}Subsubsección}{3}{subsubsection.1.1.1}}
\@writefile{toc}{\contentsline {paragraph}{\numberline {1.1.1.1}Párrafo}{3}{paragraph.1.1.1.1}}
\@writefile{toc}{\contentsline {section}{\numberline {2}Sección}{6}{section.2}}
\newlabel{sec:seccionotras}{{2}{6}{Sección}{section.2}{}}
\@writefile{lot}{\contentsline {table}{\numberline {1}{\ignorespaces Lista centros}}{7}{table.1}}
\newlabel{table:listacentros}{{1}{7}{Lista centros}{table.1}{}}
\gdef \LT@i {\LT@entry 
    {1}{40.45274pt}\LT@entry 
    {2}{55.04611pt}\LT@entry 
    {1}{97.35826pt}\LT@entry 
    {1}{40.45274pt}\LT@entry 
    {1}{40.45274pt}\LT@entry 
    {1}{40.45274pt}\LT@entry 
    {1}{40.45274pt}\LT@entry 
    {1}{63.21504pt}}
\@writefile{lot}{\contentsline {table}{\numberline {2}{\ignorespaces Ejemplo\relax }}{9}{table.caption.2}}
\providecommand*\caption@xref[2]{\@setref\relax\@undefined{#1}}
\newlabel{tab:ejemplotabla}{{2}{9}{Ejemplo\relax }{table.caption.2}{}}
\@writefile{lot}{\contentsline {table}{\numberline {3}{\ignorespaces Ejemplo\relax }}{9}{table.caption.3}}
\newlabel{tab:ejemplotabla1}{{3}{9}{Ejemplo\relax }{table.caption.3}{}}
\@writefile{lot}{\contentsline {table}{\numberline {4}{\ignorespaces Otro ejemplo\relax }}{9}{table.caption.4}}
\newlabel{tab:ejemplotabla2}{{4}{9}{Otro ejemplo\relax }{table.caption.4}{}}
\@writefile{lot}{\contentsline {table}{\numberline {5}{\ignorespaces Otro ejemplo: tablas anidadas\relax }}{9}{table.caption.5}}
\newlabel{tab:ejemplotabla3}{{5}{9}{Otro ejemplo: tablas anidadas\relax }{table.caption.5}{}}
\@writefile{lot}{\contentsline {table}{\numberline {6}{\ignorespaces Cabecera en una tabla\relax }}{10}{table.caption.6}}
\newlabel{tab:xmpl:headers}{{6}{10}{Cabecera en una tabla\relax }{table.caption.6}{}}
\@writefile{lot}{\contentsline {table}{\numberline {7}{\ignorespaces Add caption\relax }}{10}{table.caption.7}}
\newlabel{tab:addlabel}{{7}{10}{Add caption\relax }{table.caption.7}{}}
\newlabel{my-label}{{\caption@xref {my-label}{ on input line 241}}{10}{Sección}{table.caption.8}{}}
\abx@aux@cite{xtd:CSRE}
\abx@aux@segm{0}{0}{xtd:CSRE}
\abx@aux@cite{xtd:MBPCR}
\abx@aux@segm{0}{0}{xtd:MBPCR}
\abx@aux@cite{cnc:contratacionpublica}
\abx@aux@segm{0}{0}{cnc:contratacionpublica}
\abx@aux@cite{ts:contratacionadministrativa20092012}
\abx@aux@segm{0}{0}{ts:contratacionadministrativa20092012}
\abx@aux@cite{pruebaonline}
\abx@aux@segm{0}{0}{pruebaonline}
\@writefile{toc}{\contentsline {part}{I\hspace  {1em}Anexos}{13}{part.1}}
\@writefile{toc}{\contentsline {section}{\numberline {A}Título Anexo}{13}{Anexo.1.Alph1}}
\newlabel{LastPage}{{}{15}{}{page.15}{}}
\xdef\lastpage@lastpage{15}
\xdef\lastpage@lastpageHy{15}
\xwm@secstopagerange{{1}{3},{1}{3},{1}{3},{1}{3},{2}{6},{A}{13},{10000}{15}}
\newlabel{xwmlastpage}{{I}{15}{Anexos\relax }{table.caption.10}{}}
\zref@newlabel{LastPage}{\default{I}\page{15}\abspage{15}\mdf@pagevalue{15}}
